Rms_multimeter/project_6/资料/ROM/simulation/qsim/ROM.msim.vcd
$comment
	File created using the following command:
		vcd file ROM.msim.vcd -direction
$end
$date
	Sun May 21 17:41:27 2023
$end
$version
	ModelSim Version 10.1d
$end
$timescale
	1ps
$end
$scope module sin_vlg_vec_tst $end
$var reg 8 ! address [7:0] $end
$var reg 1 " clock $end
$var wire 1 # q [7] $end
$var wire 1 $ q [6] $end
$var wire 1 % q [5] $end
$var wire 1 & q [4] $end
$var wire 1 ' q [3] $end
$var wire 1 ( q [2] $end
$var wire 1 ) q [1] $end
$var wire 1 * q [0] $end
$var wire 1 + sampler $end
$scope module i1 $end
$var wire 1 , gnd $end
$var wire 1 - vcc $end
$var wire 1 . unknown $end
$var tri1 1 / devclrn $end
$var tri1 1 0 devpor $end
$var tri1 1 1 devoe $end
$var wire 1 2 q[0]~output_o $end
$var wire 1 3 q[1]~output_o $end
$var wire 1 4 q[2]~output_o $end
$var wire 1 5 q[3]~output_o $end
$var wire 1 6 q[4]~output_o $end
$var wire 1 7 q[5]~output_o $end
$var wire 1 8 q[6]~output_o $end
$var wire 1 9 q[7]~output_o $end
$var wire 1 : clock~input_o $end
$var wire 1 ; address[0]~input_o $end
$var wire 1 < address[1]~input_o $end
$var wire 1 = address[2]~input_o $end
$var wire 1 > address[3]~input_o $end
$var wire 1 ? address[4]~input_o $end
$var wire 1 @ address[5]~input_o $end
$var wire 1 A address[6]~input_o $end
$var wire 1 B address[7]~input_o $end
$var wire 1 C altsyncram_component|auto_generated|q_a [7] $end
$var wire 1 D altsyncram_component|auto_generated|q_a [6] $end
$var wire 1 E altsyncram_component|auto_generated|q_a [5] $end
$var wire 1 F altsyncram_component|auto_generated|q_a [4] $end
$var wire 1 G altsyncram_component|auto_generated|q_a [3] $end
$var wire 1 H altsyncram_component|auto_generated|q_a [2] $end
$var wire 1 I altsyncram_component|auto_generated|q_a [1] $end
$var wire 1 J altsyncram_component|auto_generated|q_a [0] $end
$var wire 1 K altsyncram_component|auto_generated|ram_block1a0_PORTADATAOUT_bus [0] $end
$var wire 1 L altsyncram_component|auto_generated|ram_block1a1_PORTADATAOUT_bus [0] $end
$var wire 1 M altsyncram_component|auto_generated|ram_block1a2_PORTADATAOUT_bus [0] $end
$var wire 1 N altsyncram_component|auto_generated|ram_block1a3_PORTADATAOUT_bus [0] $end
$var wire 1 O altsyncram_component|auto_generated|ram_block1a4_PORTADATAOUT_bus [0] $end
$var wire 1 P altsyncram_component|auto_generated|ram_block1a5_PORTADATAOUT_bus [0] $end
$var wire 1 Q altsyncram_component|auto_generated|ram_block1a6_PORTADATAOUT_bus [0] $end
$var wire 1 R altsyncram_component|auto_generated|ram_block1a7_PORTADATAOUT_bus [0] $end
$upscope $end
$upscope $end
$enddefinitions $end
#0
$dumpvars
b0 !
0"
0*
0)
0(
0'
0&
0%
0$
0#
x+
0,
1-
x.
1/
10
11
02
03
04
05
06
07
08
09
0:
0;
0<
0=
0>
0?
0@
0A
0B
0J
0I
0H
0G
0F
0E
0D
0C
0K
0L
0M
0N
0O
0P
0Q
0R
$end
#5000
b1 !
1;
0+
#10000
b11 !
b10 !
0;
1<
1+
#15000
b11 !
1;
0+
#20000
b111 !
b101 !
b100 !
0;
0<
1=
1+
#25000
b101 !
1;
0+
#30000
b111 !
b110 !
0;
1<
1+
#35000
b111 !
1;
0+
#40000
b1111 !
b1011 !
b1001 !
b1000 !
0;
0<
0=
1>
1+
#45000
b1001 !
1;
0+
#50000
b1011 !
b1010 !
0;
1<
1+
#55000
b1011 !
1;
0+
#60000
b1111 !
b1101 !
b1100 !
0;
0<
1=
1+
#65000
b1101 !
1;
0+
#70000
b1111 !
b1110 !
0;
1<
1+
#75000
b1111 !
1;
0+
#80000
b11111 !
b10111 !
b10011 !
b10001 !
b10000 !
0;
0<
0=
0>
1?
1+
#85000
b10001 !
1;
0+
#90000
1"
b10011 !
b10010 !
1:
0;
1<
1+
#90001
1R
1P
1O
1N
1M
1L
1C
1E
1F
1G
1H
1I
19
17
16
15
14
13
1#
1%
1&
1'
1(
1)
#95000
b10011 !
1;
0+
#100000
b10111 !
b10101 !
b10100 !
0;
0<
1=
1+
#105000
b10101 !
1;
0+
#110000
b10111 !
b10110 !
0;
1<
1+
#115000
b10111 !
1;
0+
#120000
b11111 !
b11011 !
b11001 !
b11000 !
0;
0<
0=
1>
1+
#125000
b11001 !
1;
0+
#130000
b11011 !
b11010 !
0;
1<
1+
#135000
b11011 !
1;
0+
#140000
b11111 !
b11101 !
b11100 !
0;
0<
1=
1+
#145000
b11101 !
1;
0+
#150000
b11111 !
b11110 !
0;
1<
1+
#155000
b11111 !
1;
0+
#160000
b1111 !
b111 !
b11 !
b1 !
b0 !
0;
0<
0=
0>
0?
1+
#165000
b1 !
1;
0+
#170000
b11 !
b10 !
0;
1<
1+
#175000
b11 !
1;
0+
#180000
0"
b111 !
b101 !
b100 !
0:
0;
0<
1=
1+
#185000
b101 !
1;
0+
#190000
b111 !
b110 !
0;
1<
1+
#195000
b111 !
1;
0+
#200000
b1111 !
b1011 !
b1001 !
b1000 !
0;
0<
0=
1>
1+
#205000
b1001 !
1;
0+
#210000
b1011 !
b1010 !
0;
1<
1+
#215000
b1011 !
1;
0+
#220000
b1111 !
b1101 !
b1100 !
0;
0<
1=
1+
#225000
b1101 !
1;
0+
#230000
b1111 !
b1110 !
0;
1<
1+
#235000
b1111 !
1;
0+
#240000
b11111 !
b10111 !
b10011 !
b10001 !
b10000 !
0;
0<
0=
0>
1?
1+
#245000
b10001 !
1;
0+
#250000
b10011 !
b10010 !
0;
1<
1+
#255000
b10011 !
1;
0+
#260000
b10111 !
b10101 !
b10100 !
0;
0<
1=
1+
#265000
b10101 !
1;
0+
#270000
1"
b10111 !
b10110 !
1:
0;
1<
1+
#270001
1Q
0P
0O
0N
0M
0L
1D
0E
0F
0G
0H
0I
18
07
06
05
04
03
1$
0%
0&
0'
0(
0)
#275000
b10111 !
1;
0+
#280000
b11111 !
b11011 !
b11001 !
b11000 !
0;
0<
0=
1>
1+
#285000
b11001 !
1;
0+
#290000
b11011 !
b11010 !
0;
1<
1+
#295000
b11011 !
1;
0+
#300000
b11111 !
b11101 !
b11100 !
0;
0<
1=
1+
#305000
b11101 !
1;
0+
#310000
b11111 !
b11110 !
0;
1<
1+
#315000
b11111 !
1;
0+
#320000
b1111 !
b111 !
b11 !
b1 !
b0 !
0;
0<
0=
0>
0?
1+
#325000
b1 !
1;
0+
#330000
b11 !
b10 !
0;
1<
1+
#335000
b11 !
1;
0+
#340000
b111 !
b101 !
b100 !
0;
0<
1=
1+
#345000
b101 !
1;
0+
#350000
b111 !
b110 !
0;
1<
1+
#355000
b111 !
1;
0+
#360000
0"
b1111 !
b1011 !
b1001 !
b1000 !
0:
0;
0<
0=
1>
1+
#365000
b1001 !
1;
0+
#370000
b1011 !
b1010 !
0;
1<
1+
#375000
b1011 !
1;
0+
#380000
b1111 !
b1101 !
b1100 !
0;
0<
1=
1+
#385000
b1101 !
1;
0+
#390000
b1111 !
b1110 !
0;
1<
1+
#395000
b1111 !
1;
0+
#400000
b11111 !
b10111 !
b10011 !
b10001 !
b10000 !
0;
0<
0=
0>
1?
1+
#405000
b10001 !
1;
0+
#410000
b10011 !
b10010 !
0;
1<
1+
#415000
b10011 !
1;
0+
#420000
b10111 !
b10101 !
b10100 !
0;
0<
1=
1+
#425000
b10101 !
1;
0+
#430000
b10111 !
b10110 !
0;
1<
1+
#435000
b10111 !
1;
0+
#440000
b11111 !
b11011 !
b11001 !
b11000 !
0;
0<
0=
1>
1+
#445000
b11001 !
1;
0+
#450000
1"
b11011 !
b11010 !
1:
0;
1<
1+
#450001
1L
1I
13
1)
#455000
b11011 !
1;
0+
#460000
b11111 !
b11101 !
b11100 !
0;
0<
1=
1+
#465000
b11101 !
1;
0+
#470000
b11111 !
b11110 !
0;
1<
1+
#475000
b11111 !
1;
0+
#480000
b1111 !
b111 !
b11 !
b1 !
b0 !
0;
0<
0=
0>
0?
1+
#485000
b1 !
1;
0+
#490000
b11 !
b10 !
0;
1<
1+
#495000
b11 !
1;
0+
#500000
b111 !
b101 !
b100 !
0;
0<
1=
1+
#505000
b101 !
1;
0+
#510000
b111 !
b110 !
0;
1<
1+
#515000
b111 !
1;
0+
#520000
b1111 !
b1011 !
b1001 !
b1000 !
0;
0<
0=
1>
1+
#525000
b1001 !
1;
0+
#530000
b1011 !
b1010 !
0;
1<
1+
#535000
b1011 !
1;
0+
#540000
0"
b1111 !
b1101 !
b1100 !
0:
0;
0<
1=
1+
#545000
b1101 !
1;
0+
#550000
b1111 !
b1110 !
0;
1<
1+
#555000
b1111 !
1;
0+
#560000
b11111 !
b10111 !
b10011 !
b10001 !
b10000 !
0;
0<
0=
0>
1?
1+
#565000
b10001 !
1;
0+
#570000
b10011 !
b10010 !
0;
1<
1+
#575000
b10011 !
1;
0+
#580000
b10111 !
b10101 !
b10100 !
0;
0<
1=
1+
#585000
b10101 !
1;
0+
#590000
b10111 !
b10110 !
0;
1<
1+
#595000
b10111 !
1;
0+
#600000
b11111 !
b11011 !
b11001 !
b11000 !
0;
0<
0=
1>
1+
#605000
b11001 !
1;
0+
#610000
b11011 !
b11010 !
0;
1<
1+
#615000
b11011 !
1;
0+
#620000
b11111 !
b11101 !
b11100 !
0;
0<
1=
1+
#625000
b11101 !
1;
0+
#630000
1"
b11111 !
b11110 !
1:
0;
1<
1+
#630001
1M
0L
1H
0I
14
03
1(
0)
#635000
b11111 !
1;
0+
#640000
b1111 !
b111 !
b11 !
b1 !
b0 !
0;
0<
0=
0>
0?
1+
#645000
b1 !
1;
0+
#650000
b11 !
b10 !
0;
1<
1+
#655000
b11 !
1;
0+
#660000
b111 !
b101 !
b100 !
0;
0<
1=
1+
#665000
b101 !
1;
0+
#670000
b111 !
b110 !
0;
1<
1+
#675000
b111 !
1;
0+
#680000
b1111 !
b1011 !
b1001 !
b1000 !
0;
0<
0=
1>
1+
#685000
b1001 !
1;
0+
#690000
b1011 !
b1010 !
0;
1<
1+
#695000
b1011 !
1;
0+
#700000
b1111 !
b1101 !
b1100 !
0;
0<
1=
1+
#705000
b1101 !
1;
0+
#710000
b1111 !
b1110 !
0;
1<
1+
#715000
b1111 !
1;
0+
#720000
0"
b11111 !
b10111 !
b10011 !
b10001 !
b10000 !
0:
0;
0<
0=
0>
1?
1+
#725000
b10001 !
1;
0+
#730000
b10011 !
b10010 !
0;
1<
1+
#735000
b10011 !
1;
0+
#740000
b10111 !
b10101 !
b10100 !
0;
0<
1=
1+
#745000
b10101 !
1;
0+
#750000
b10111 !
b10110 !
0;
1<
1+
#755000
b10111 !
1;
0+
#760000
b11111 !
b11011 !
b11001 !
b11000 !
0;
0<
0=
1>
1+
#765000
b11001 !
1;
0+
#770000
b11011 !
b11010 !
0;
1<
1+
#775000
b11011 !
1;
0+
#780000
b11111 !
b11101 !
b11100 !
0;
0<
1=
1+
#785000
b11101 !
1;
0+
#790000
b11111 !
b11110 !
0;
1<
1+
#795000
b11111 !
1;
0+
#800000
b1111 !
b111 !
b11 !
b1 !
b0 !
0;
0<
0=
0>
0?
1+
#805000
b1 !
1;
0+
#810000
1"
b11 !
b10 !
1:
0;
1<
1+
#810001
0Q
1P
1O
0D
1E
1F
08
17
16
0$
1%
1&
#815000
b11 !
1;
0+
#820000
b111 !
b101 !
b100 !
0;
0<
1=
1+
#825000
b101 !
1;
0+
#830000
b111 !
b110 !
0;
1<
1+
#835000
b111 !
1;
0+
#840000
b1111 !
b1011 !
b1001 !
b1000 !
0;
0<
0=
1>
1+
#845000
b1001 !
1;
0+
#850000
b1011 !
b1010 !
0;
1<
1+
#855000
b1011 !
1;
0+
#860000
b1111 !
b1101 !
b1100 !
0;
0<
1=
1+
#865000
b1101 !
1;
0+
#870000
b1111 !
b1110 !
0;
1<
1+
#875000
b1111 !
1;
0+
#880000
b11111 !
b10111 !
b10011 !
b10001 !
b10000 !
0;
0<
0=
0>
1?
1+
#885000
b10001 !
1;
0+
#890000
b10011 !
b10010 !
0;
1<
1+
#895000
b10011 !
1;
0+
#900000
0"
b10111 !
b10101 !
b10100 !
0:
0;
0<
1=
1+
#905000
b10101 !
1;
0+
#910000
b10111 !
b10110 !
0;
1<
1+
#915000
b10111 !
1;
0+
#920000
b11111 !
b11011 !
b11001 !
b11000 !
0;
0<
0=
1>
1+
#925000
b11001 !
1;
0+
#930000
b11011 !
b11010 !
0;
1<
1+
#935000
b11011 !
1;
0+
#940000
b11111 !
b11101 !
b11100 !
0;
0<
1=
1+
#945000
b11101 !
1;
0+
#950000
b11111 !
b11110 !
0;
1<
1+
#955000
b11111 !
1;
0+
#960000
b1111 !
b111 !
b11 !
b1 !
b0 !
0;
0<
0=
0>
0?
1+
#965000
b1 !
1;
0+
#970000
b11 !
b10 !
0;
1<
1+
#975000
b11 !
1;
0+
#980000
b111 !
b101 !
b100 !
0;
0<
1=
1+
#985000
b101 !
1;
0+
#990000
1"
b111 !
b110 !
1:
0;
1<
1+
#990001
1L
1K
1I
1J
13
12
1)
1*
#995000
b111 !
1;
0+
